module gitlab.com/wild-public/vitess-operator-lib

go 1.17

require (
	github.com/stretchr/testify v1.4.0
	k8s.io/api v0.18.6
	k8s.io/apimachinery v0.18.6
	k8s.io/client-go v0.18.6
	sigs.k8s.io/controller-runtime v0.6.4
)

require (
	github.com/davecgh/go-spew v1.1.1 // indirect
	github.com/evanphx/json-patch v4.9.0+incompatible // indirect
	github.com/go-logr/logr v0.1.0 // indirect
	github.com/gogo/protobuf v1.3.1 // indirect
	github.com/golang/protobuf v1.4.2 // indirect
	github.com/google/gofuzz v1.1.0 // indirect
	github.com/googleapis/gnostic v0.3.1 // indirect
	github.com/imdario/mergo v0.3.9 // indirect
	github.com/json-iterator/go v1.1.10 // indirect
	github.com/modern-go/concurrent v0.0.0-20180306012644-bacd9c7ef1dd // indirect
	github.com/modern-go/reflect2 v1.0.1 // indirect
	github.com/pkg/errors v0.8.1 // indirect
	github.com/pmezard/go-difflib v1.0.0 // indirect
	github.com/spf13/pflag v1.0.5 // indirect
	golang.org/x/crypto v0.0.0-20200220183623-bac4c82f6975 // indirect
	golang.org/x/net v0.0.0-20200520004742-59133d7f0dd7 // indirect
	golang.org/x/oauth2 v0.0.0-20190604053449-0f29369cfe45 // indirect
	golang.org/x/sys v0.0.0-20200323222414-85ca7c5b95cd // indirect
	golang.org/x/text v0.3.3 // indirect
	golang.org/x/time v0.0.0-20190308202827-9d24e82272b4 // indirect
	google.golang.org/appengine v1.5.0 // indirect
	google.golang.org/protobuf v1.23.0 // indirect
	gopkg.in/inf.v0 v0.9.1 // indirect
	gopkg.in/yaml.v2 v2.3.0 // indirect
	k8s.io/klog v1.0.0 // indirect
	k8s.io/utils v0.0.0-20200603063816-c1c6865ac451 // indirect
	sigs.k8s.io/structured-merge-diff/v3 v3.0.0 // indirect
	sigs.k8s.io/yaml v1.2.0 // indirect
)
